Simple Linear Regression
…
get_regression_points(model_score_age) %>% 
  mutate(residual_2 = score - score_hat)

## # A tibble: 463 x 6
##       ID score   age score_hat residual residual_2
##    <int> <dbl> <dbl>     <dbl>    <dbl>      <dbl>
##  1     1  4.70  36.0      4.25   0.452      0.452 
##  2     2  4.10  36.0      4.25  -0.148     -0.148 
##  3     3  3.90  36.0      4.25  -0.348     -0.348 
##  4     4  4.80  36.0      4.25   0.552      0.552 
##  5     5  4.60  59.0      4.11   0.488      0.488 
##  6     6  4.30  59.0      4.11   0.188      0.188 
##  7     7  2.80  59.0      4.11  -1.31      -1.31  
##  8     8  4.10  51.0      4.16  -0.0590    -0.0590
##  9     9  3.40  51.0      4.16  -0.759     -0.759 
## 10    10  4.50  40.0      4.22   0.276      0.276 
## # ... with 453 more rows
